{
  "routes": [
    {
      "method": "GET",
      "path": "/operations",
      "handler": "Operations.find",
      "config": {
        "policies": []
      }
    },

    {
      "method": "GET",
      "path": "/operations/my-operations",
      "handler": "Operations.findCurrentUserOperations",
      "config": {
        "policies": [
     
        ]
      }
    },
    {
      "method": "GET",
      "path": "/operations/count",
      "handler": "Operations.count",
      "config": {
        "policies": []
      }
    },
    {
      "method": "GET",
      "path": "/operations/:_id",
      "handler": "Operations.findOne",
      "config": {
        "policies": []
      }
    },
    {
      "method": "POST",
      "path": "/operations",
      "handler": "Operations.create",
      "config": {
        "policies": []
      }
    },
    {
      "method": "PUT",
      "path": "/operations/:_id",
      "handler": "Operations.update",
      "config": {
        "policies": []
      }
    },
    {
      "method": "DELETE",
      "path": "/operations/:_id",
      "handler": "Operations.delete",
      "config": {
        "policies": []
      }
    }
  ]
}
